{"firstName": "alex", "lastName": "popescu", "dob": "2023-08-28T22:01", "directManager": "cristi", "salary": 67.9,   "department": "finance",   "_class": "employees.modelMongo.Employee" },
{"firstName": "vasile", "lastName": "ceausescu", "dob": "2023-08-28T22:01", "directManager": "alina", "salary": 123.123, "department": "logistics", "_class": "employees.modelMongo.Employee"},
{"firstName": "alina", "lastName": "radoi", "dob": "2023-08-28T22:01", "directManager": "cristina", "salary": 56.8, "department": "hr", "_class": "employees.modelMongo.Employee"},
{"firstName": "cristina", "lastName": "raducu", "dob": "2023-08-28T22:01", "directManager": "alex", "salary": 111.22, "department": "operations", "_class": "employees.modelMongo.Employee"},
{"firstName": "radu", "lastName": "dumitrescu", "dob": "2023-08-28T22:01", "directManager": "george", "salary": 90.45, "department": "accounting", "_class": "employees.modelMongo.Employee"},
{"firstName": "george", "lastName": "balint", "dob": "2023-08-28T22:01", "directManager": "alex", "salary": 999.555, "department": "operations", "_class": "employees.modelMongo.Employee"},
{"firstName": "test", "lastName": "alexandrescu", "dob": "2023-08-28T22:01", "directManager": "ion", "salary": 11.22, "department": "testing", "_class": "employees.modelMongo.Employee"},
{"firstName": "gigica", "lastName": "alexandrescu", "dob": "2000-09-09T03:00", "directManager": "ion", "salary": 77.88, "department": "it", "_class": "employee.entity.Employee"},
{"firstName": "sashi", "lastName": "cojo", "dob": "2023-08-28T22:01", "directManager": "adrian", "salary": 45.89, "department": "qa", "_class": "employee.entity.Employee"}